%YAML 1.1
%TAG !u! tag:unity3d.com,2011:
--- !u!74 &7400000
AnimationClip:
  m_ObjectHideFlags: 0
  m_PrefabParentObject: {fileID: 0}
  m_PrefabInternal: {fileID: 0}
  m_Name: DMG
  serializedVersion: 6
  m_Legacy: 0
  m_Compressed: 0
  m_UseHighQualityCurve: 1
  m_RotationCurves:
  - curve:
      serializedVersion: 2
      m_Curve:
      - serializedVersion: 2
        time: 0
        value: {x: 0.05786958, y: -0.34633404, z: -0.04099922, w: -0.9354266}
        inSlope: {x: -0.37653652, y: 0.19388257, z: 1.3047926, w: -0.13533711}
        outSlope: {x: -0.37653652, y: 0.19388257, z: 1.3047926, w: -0.13533711}
        tangentMode: 0
      - serializedVersion: 2
        time: 0.016666668
        value: {x: 0.05159397, y: -0.34310266, z: -0.019252673, w: -0.9376822}
        inSlope: {x: -0.4200319, y: 0.1520115, z: 1.6274331, w: -0.10266423}
        outSlope: {x: -0.4200319, y: 0.1520115, z: 1.6274331, w: -0.10266423}
        tangentMode: 0
      - serializedVersion: 2
        time: 0.033333335
        value: {x: 0.043868516, y: -0.341267, z: 0.013248557, w: -0.93884873}
        inSlope: {x: -0.4467908, y: 0.11233358, z: 1.788515, w: -0.041749477}
        outSlope: {x: -0.4467908, y: 0.11233358, z: 1.788515, w: -0.041749477}
        tangentMode: 0
      - serializedVersion: 2
        time: 0.050000004
        value: {x: 0.03670094, y: -0.3393582, z: 0.0403645, w: -0.93907386}
        inSlope: {x: -0.3550718, y: 0.185633, z: 0.9800947, w: -0.050289635}
        outSlope: {x: -0.3550718, y: 0.185633, z: 0.9800947, w: -0.050289635}
        tangentMode: 0
      - serializedVersion: 2
        time: 0.06666667
        value: {x: 0.032032788, y: -0.33507922, z: 0.045918383, w: -0.94052505}
        inSlope: {x: -0.1318888, y: 0.39447165, z: -0.7972778, w: -0.16712667}
        outSlope: {x: -0.1318888, y: 0.39447165, z: -0.7972778, w: -0.16712667}
        tangentMode: 0
      - serializedVersion: 2
        time: 0.083333336
        value: {x: 0.03230465, y: -0.32620916, z: 0.013788573, w: -0.94464475}
        inSlope: {x: 0.34016806, y: 0.7474691, z: -3.9991624, w: -0.15417697}
        outSlope: {x: 0.34016806, y: 0.7474691, z: -3.9991624, w: -0.15417697}
        tangentMode: 0
      - serializedVersion: 2
        time: 0.1
        value: {x: 0.043371722, y: -0.3101636, z: -0.087387025, w: -0.9456643}
        inSlope: {x: 1.0860415, y: 0.87654597, z: -7.676553, w: 0.7052458}
        outSlope: {x: 1.0860415, y: 0.87654597, z: -7.676553, w: 0.7052458}
        tangentMode: 0
      - serializedVersion: 2
        time: 0.11666667
        value: {x: 0.068506025, y: -0.29699096, z: -0.24209651, w: -0.92113656}
        inSlope: {x: 1.6995159, y: 0.322263, z: -9.211029, w: 2.4798393}
        outSlope: {x: 1.6995159, y: 0.322263, z: -9.211029, w: 2.4798393}
        tangentMode: 0
      - serializedVersion: 2
        time: 0.13333334
        value: {x: 0.100022264, y: -0.2994215, z: -0.39442137, w: -0.86300296}
        inSlope: {x: 1.682179, y: -0.5220562, z: -7.7467914, w: 3.722117}
        outSlope: {x: 1.682179, y: -0.5220562, z: -7.7467914, w: 3.722117}
        tangentMode: 0
      - serializedVersion: 2
        time: 0.15
        value: {x: 0.12457867, y: -0.31439283, z: -0.50032294, w: -0.797066}
        inSlope: {x: 0.9926997, y: -0.7652906, z: -4.2392435, w: 2.8526134}
        outSlope: {x: 0.9926997, y: -0.7652906, z: -4.2392435, w: 2.8526134}
        tangentMode: 0
      - serializedVersion: 2
        time: 0.16666667
        value: {x: 0.13311225, y: -0.32493117, z: -0.53572947, w: -0.76791584}
        inSlope: {x: -0.053085834, y: -0.18422486, z: 0.3815943, w: -0.17074054}
        outSlope: {x: -0.053085834, y: -0.18422486, z: 0.3815943, w: -0.17074054}
        tangentMode: 0
      - serializedVersion: 2
        time: 0.18333334
        value: {x: 0.12280914, y: -0.32053366, z: -0.48760313, w: -0.8027573}
        inSlope: {x: -1.0207487, y: 0.2879745, z: 5.044809, w: -3.0407991}
        outSlope: {x: -1.0207487, y: 0.2879745, z: 5.044809, w: -3.0407991}
        tangentMode: 0
      - serializedVersion: 2
        time: 0.2
        value: {x: 0.0990873, y: -0.31533203, z: -0.36756918, w: -0.8692758}
        inSlope: {x: -1.4836197, y: -0.115351096, z: 8.556289, w: -3.550428}
        outSlope: {x: -1.4836197, y: -0.115351096, z: 8.556289, w: -3.550428}
        tangentMode: 0
      - serializedVersion: 2
        time: 0.21666667
        value: {x: 0.07335515, y: -0.3243787, z: -0.20239352, w: -0.9211049}
        inSlope: {x: -1.2365248, y: -0.9300605, z: 9.797097, w: -1.9845237}
        outSlope: {x: -1.2365248, y: -0.9300605, z: 9.797097, w: -1.9845237}
        tangentMode: 0
      - serializedVersion: 2
        time: 0.23333333
        value: {x: 0.057869807, y: -0.34633404, z: -0.040999297, w: -0.9354266}
        inSlope: {x: -0.92912084, y: -1.3173206, z: 9.683654, w: -0.85930115}
        outSlope: {x: -0.92912084, y: -1.3173206, z: 9.683654, w: -0.85930115}
        tangentMode: 0
      m_PreInfinity: 2
      m_PostInfinity: 2
      m_RotationOrder: 4
    path: BODY/WING_L
  - curve:
      serializedVersion: 2
      m_Curve:
      - serializedVersion: 2
        time: 0
        value: {x: 0, y: 0, z: 0.104693055, w: -0.9945046}
        inSlope: {x: 0, y: 0, z: -1.016377, w: -0.09825825}
        outSlope: {x: 0, y: 0, z: -1.016377, w: -0.09825825}
        tangentMode: 227
      - serializedVersion: 2
        time: 0.016666668
        value: {x: 0, y: 0, z: 0.08775344, w: -0.9961422}
        inSlope: {x: 0, y: 0, z: -1.3047578, w: -0.10862588}
        outSlope: {x: 0, y: 0, z: -1.3047578, w: -0.10862588}
        tangentMode: 0
      - serializedVersion: 2
        time: 0.033333335
        value: {x: 0, y: 0, z: 0.06120112, w: -0.99812543}
        inSlope: {x: 0, y: 0, z: -1.4504151, w: -0.09243249}
        outSlope: {x: 0, y: 0, z: -1.4504151, w: -0.09243249}
        tangentMode: -2119750815
      - serializedVersion: 2
        time: 0.050000004
        value: {x: 0, y: 0, z: 0.03940626, w: -0.9992233}
        inSlope: {x: 0, y: 0, z: -0.73197365, w: -0.035914775}
        outSlope: {x: 0, y: 0, z: -0.73197365, w: -0.035914775}
        tangentMode: 0
      - serializedVersion: 2
        time: 0.06666667
        value: {x: 0, y: 0, z: 0.036801998, w: -0.9993226}
        inSlope: {x: 0, y: 0, z: 0.85123783, w: 0.04569233}
        outSlope: {x: 0, y: 0, z: 0.85123783, w: 0.04569233}
        tangentMode: 513043364
      - serializedVersion: 2
        time: 0.083333336
        value: {x: 0, y: 0, z: 0.06778085, w: -0.9977002}
        inSlope: {x: 0, y: 0, z: 3.7239482, w: 0.37072065}
        outSlope: {x: 0, y: 0, z: 3.7239482, w: 0.37072065}
        tangentMode: 0
      - serializedVersion: 2
        time: 0.1
        value: {x: 0, y: 0, z: 0.1609336, w: -0.98696524}
        inSlope: {x: 0, y: 0, z: 7.078698, w: 1.3483341}
        outSlope: {x: 0, y: 0, z: 7.078698, w: 1.3483341}
        tangentMode: 515310180
      - serializedVersion: 2
        time: 0.11666667
        value: {x: 0, y: 0, z: 0.30373743, w: -0.95275575}
        inSlope: {x: 0, y: 0, z: 8.625597, w: 2.7947717}
        outSlope: {x: 0, y: 0, z: 8.625597, w: 2.7947717}
        tangentMode: 0
      - serializedVersion: 2
        time: 0.13333334
        value: {x: 0, y: 0, z: 0.44845355, w: -0.89380616}
        inSlope: {x: 0, y: 0, z: 7.5081406, w: 3.607349}
        outSlope: {x: 0, y: 0, z: 7.5081406, w: 3.607349}
        tangentMode: 1040973824
      - serializedVersion: 2
        time: 0.15
        value: {x: 0, y: 0, z: 0.55400884, w: -0.83251077}
        inSlope: {x: 0, y: 0, z: 4.252203, w: 2.5963337}
        outSlope: {x: 0, y: 0, z: 4.252203, w: 2.5963337}
        tangentMode: 1073741824
      - serializedVersion: 2
        time: 0.16666667
        value: {x: 0, y: 0, z: 0.5901936, w: -0.8072617}
        inSlope: {x: 0, y: 0, z: -0.47163785, w: -0.30751354}
        outSlope: {x: 0, y: 0, z: -0.47163785, w: -0.30751354}
        tangentMode: 1392508903
      - serializedVersion: 2
        time: 0.18333334
        value: {x: 0, y: 0, z: 0.5382876, w: -0.8427612}
        inSlope: {x: 0, y: 0, z: -5.222432, w: -3.0615416}
        outSlope: {x: 0, y: 0, z: -5.222432, w: -3.0615416}
        tangentMode: 1033371648
      - serializedVersion: 2
        time: 0.2
        value: {x: 0, y: 0, z: 0.41611257, w: -0.9093131}
        inSlope: {x: 0, y: 0, z: -8.453849, w: -3.7135491}
        outSlope: {x: 0, y: 0, z: -8.453849, w: -3.7135491}
        tangentMode: 1091567616
      - serializedVersion: 2
        time: 0.21666667
        value: {x: 0, y: 0, z: 0.25649264, w: -0.9665462}
        inSlope: {x: 0, y: 0, z: -9.342579, w: -2.555745}
        outSlope: {x: 0, y: 0, z: -9.342579, w: -2.555745}
        tangentMode: 65077312
      - serializedVersion: 2
        time: 0.23333333
        value: {x: 0, y: 0, z: 0.104693286, w: -0.9945046}
        inSlope: {x: 0, y: 0, z: -9.107962, w: -1.6775037}
        outSlope: {x: 0, y: 0, z: -9.107962, w: -1.6775037}
        tangentMode: 513044068
      m_PreInfinity: 2
      m_PostInfinity: 2
      m_RotationOrder: 4
    path: BODY/WING_R
  - curve:
      serializedVersion: 2
      m_Curve:
      - serializedVersion: 2
        time: 0
        value: {x: 0, y: 0, z: -0.0030104327, w: 0.99999547}
        inSlope: {x: 0, y: 0, z: 0.21686943, w: 0.00026106834}
        outSlope: {x: 0, y: 0, z: 0.21686943, w: 0.00026106834}
        tangentMode: 1113180102
      - serializedVersion: 2
        time: 0.016666668
        value: {x: 0, y: 0, z: 0.00060405786, w: 0.9999998}
        inSlope: {x: 0, y: 0, z: 0.28915802, w: -0.00052392477}
        outSlope: {x: 0, y: 0, z: 0.28915802, w: -0.00052392477}
        tangentMode: 0
      - serializedVersion: 2
        time: 0.033333335
        value: {x: 0, y: 0, z: 0.0066281683, w: 0.999978}
        inSlope: {x: 0, y: 0, z: 0.21686731, w: -0.0009155272}
        outSlope: {x: 0, y: 0, z: 0.21686731, w: -0.0009155272}
        tangentMode: 34
      - serializedVersion: 2
        time: 0.050000004
        value: {x: 0, y: 0, z: 0.007832969, w: 0.9999693}
        inSlope: {x: 0, y: 0, z: -0.28915805, w: 0.00052392494}
        outSlope: {x: 0, y: 0, z: -0.28915805, w: 0.00052392494}
        tangentMode: 4
      - serializedVersion: 2
        time: 0.06666667
        value: {x: 0, y: 0, z: -0.0030104327, w: 0.99999547}
        inSlope: {x: 0, y: 0, z: -1.280923, w: -0.017318131}
        outSlope: {x: 0, y: 0, z: -1.280923, w: -0.017318131}
        tangentMode: 0
      - serializedVersion: 2
        time: 0.083333336
        value: {x: 0, y: 0, z: -0.034864463, w: 0.99939203}
        inSlope: {x: 0, y: 0, z: -2.438786, w: -0.10666073}
        outSlope: {x: 0, y: 0, z: -2.438786, w: -0.10666073}
        tangentMode: 4
      - serializedVersion: 2
        time: 0.1
        value: {x: 0, y: 0, z: -0.0843033, w: 0.9964401}
        inSlope: {x: 0, y: 0, z: -3.1510897, w: -0.27679506}
        outSlope: {x: 0, y: 0, z: -3.1510897, w: -0.27679506}
        tangentMode: 513036512
      - serializedVersion: 2
        time: 0.11666667
        value: {x: 0, y: 0, z: -0.13990077, w: 0.99016553}
        inSlope: {x: 0, y: 0, z: -3.1808405, w: -0.441606}
        outSlope: {x: 0, y: 0, z: -3.1808405, w: -0.441606}
        tangentMode: 0
      - serializedVersion: 2
        time: 0.13333334
        value: {x: 0, y: 0, z: -0.19033132, w: 0.9817199}
        inSlope: {x: 0, y: 0, z: -2.5421782, w: -0.4717111}
        outSlope: {x: 0, y: 0, z: -2.5421782, w: -0.4717111}
        tangentMode: 2
      - serializedVersion: 2
        time: 0.15
        value: {x: 0, y: 0, z: -0.22464006, w: 0.9744418}
        inSlope: {x: 0, y: 0, z: -1.2560384, w: -0.27155045}
        outSlope: {x: 0, y: 0, z: -1.2560384, w: -0.27155045}
        tangentMode: 0
      - serializedVersion: 2
        time: 0.16666667
        value: {x: 0, y: 0, z: -0.23219927, w: 0.97266823}
        inSlope: {x: 0, y: 0, z: 0.67287195, w: 0.14700474}
        outSlope: {x: 0, y: 0, z: 0.67287195, w: 0.14700474}
        tangentMode: 71
      - serializedVersion: 2
        time: 0.18333334
        value: {x: 0, y: 0, z: -0.202211, w: 0.979342}
        inSlope: {x: 0, y: 0, z: 2.6973798, w: 0.51471776}
        outSlope: {x: 0, y: 0, z: 2.6973798, w: 0.51471776}
        tangentMode: 0
      - serializedVersion: 2
        time: 0.2
        value: {x: 0, y: 0, z: -0.14228661, w: 0.9898255}
        inSlope: {x: 0, y: 0, z: 3.9716659, w: 0.5465234}
        outSlope: {x: 0, y: 0, z: 3.9716659, w: 0.5465234}
        tangentMode: 7
      - serializedVersion: 2
        time: 0.21666667
        value: {x: 0, y: 0, z: -0.06982213, w: 0.9975594}
        inSlope: {x: 0, y: 0, z: 4.1782694, w: 0.30509952}
        outSlope: {x: 0, y: 0, z: 4.1782694, w: 0.30509952}
        tangentMode: 0
      - serializedVersion: 2
        time: 0.23333333
        value: {x: 0, y: 0, z: -0.0030109652, w: 0.99999547}
        inSlope: {x: 0, y: 0, z: 4.0086703, w: 0.14616252}
        outSlope: {x: 0, y: 0, z: 4.0086703, w: 0.14616252}
        tangentMode: 0
      m_PreInfinity: 2
      m_PostInfinity: 2
      m_RotationOrder: 4
    path: BODY
  m_CompressedRotationCurves: []
  m_EulerCurves: []
  m_PositionCurves:
  - curve:
      serializedVersion: 2
      m_Curve:
      - serializedVersion: 2
        time: 0
        value: {x: -0.055928245, y: 1.7301676, z: 0}
        inSlope: {x: 0, y: 0, z: 0}
        outSlope: {x: 0, y: 0, z: 0}
        tangentMode: 96
      - serializedVersion: 2
        time: 0.083333336
        value: {x: -0.055928245, y: 1.7301676, z: 0}
        inSlope: {x: 7.6381435, y: 4.834588, z: 0}
        outSlope: {x: 7.6381435, y: 4.834588, z: 0}
        tangentMode: 1
      - serializedVersion: 2
        time: 0.16666667
        value: {x: 1.2170957, y: 2.5359323, z: 0}
        inSlope: {x: -1.9095364, y: -1.2086473, z: 0}
        outSlope: {x: -1.9095364, y: -1.2086473, z: 0}
        tangentMode: 99
      - serializedVersion: 2
        time: 0.23333333
        value: {x: -0.055928245, y: 1.7301676, z: 0}
        inSlope: {x: -19.09536, y: -12.086471, z: 0}
        outSlope: {x: -19.09536, y: -12.086471, z: 0}
        tangentMode: 515515808
      m_PreInfinity: 2
      m_PostInfinity: 2
      m_RotationOrder: 4
    path: BODY
  - curve:
      serializedVersion: 2
      m_Curve:
      - serializedVersion: 2
        time: 0
        value: {x: 0.1404464, y: 0.9872462, z: -0.30187333}
        inSlope: {x: 0.0000010728836, y: 0.00000071525574, z: 0}
        outSlope: {x: 0.0000010728836, y: 0.00000071525574, z: 0}
        tangentMode: 0
      - serializedVersion: 2
        time: 0.083333336
        value: {x: 0.14044648, y: 0.9872463, z: -0.30187333}
        inSlope: {x: -0.00000017881393, y: 0.0000010728836, z: 0}
        outSlope: {x: -0.00000017881393, y: 0.0000010728836, z: 0}
        tangentMode: 513134244
      - serializedVersion: 2
        time: 0.16666667
        value: {x: 0.14044636, y: 0.9872464, z: -0.30187333}
        inSlope: {x: -0.0000014305115, y: 0.0000014305115, z: 0}
        outSlope: {x: -0.0000014305115, y: 0.0000014305115, z: 0}
        tangentMode: 100
      m_PreInfinity: 2
      m_PostInfinity: 2
      m_RotationOrder: 4
    path: BODY/WING_R
  - curve:
      serializedVersion: 2
      m_Curve:
      - serializedVersion: 2
        time: 0
        value: {x: -0.854492, y: 1.0702543, z: 0.46948788}
        inSlope: {x: 0, y: 0.00000071525574, z: 0}
        outSlope: {x: 0, y: 0.00000071525574, z: 0}
        tangentMode: 0
      - serializedVersion: 2
        time: 0.16666667
        value: {x: -0.854492, y: 1.0702544, z: 0.46948788}
        inSlope: {x: 0, y: 0.00000071525574, z: 0}
        outSlope: {x: 0, y: 0.00000071525574, z: 0}
        tangentMode: 68
      m_PreInfinity: 2
      m_PostInfinity: 2
      m_RotationOrder: 4
    path: BODY/WING_L
  m_ScaleCurves: []
  m_FloatCurves: []
  m_PPtrCurves: []
  m_SampleRate: 60
  m_WrapMode: 0
  m_Bounds:
    m_Center: {x: 0, y: 0, z: 0}
    m_Extent: {x: 0, y: 0, z: 0}
  m_ClipBindingConstant:
    genericBindings:
    - serializedVersion: 2
      path: 3980256774
      attribute: 1
      script: {fileID: 0}
      typeID: 4
      customType: 0
      isPPtrCurve: 0
    - serializedVersion: 2
      path: 2294315267
      attribute: 1
      script: {fileID: 0}
      typeID: 4
      customType: 0
      isPPtrCurve: 0
    - serializedVersion: 2
      path: 1926186080
      attribute: 2
      script: {fileID: 0}
      typeID: 4
      customType: 0
      isPPtrCurve: 0
    - serializedVersion: 2
      path: 2294315267
      attribute: 2
      script: {fileID: 0}
      typeID: 4
      customType: 0
      isPPtrCurve: 0
    - serializedVersion: 2
      path: 3980256774
      attribute: 2
      script: {fileID: 0}
      typeID: 4
      customType: 0
      isPPtrCurve: 0
    - serializedVersion: 2
      path: 1926186080
      attribute: 1
      script: {fileID: 0}
      typeID: 4
      customType: 0
      isPPtrCurve: 0
    pptrCurveMapping: []
  m_AnimationClipSettings:
    serializedVersion: 2
    m_AdditiveReferencePoseClip: {fileID: 0}
    m_AdditiveReferencePoseTime: 0
    m_StartTime: 0
    m_StopTime: 0.23333333
    m_OrientationOffsetY: 0
    m_Level: 0
    m_CycleOffset: 0
    m_HasAdditiveReferencePose: 0
    m_LoopTime: 0
    m_LoopBlend: 0
    m_LoopBlendOrientation: 0
    m_LoopBlendPositionY: 0
    m_LoopBlendPositionXZ: 0
    m_KeepOriginalOrientation: 0
    m_KeepOriginalPositionY: 1
    m_KeepOriginalPositionXZ: 0
    m_HeightFromFeet: 0
    m_Mirror: 0
  m_EditorCurves:
  - curve:
      serializedVersion: 2
      m_Curve:
      - serializedVersion: 2
        time: 0
        value: -0.055928245
        inSlope: 0
        outSlope: 0
        tangentMode: 34
      - serializedVersion: 2
        time: 0.083333336
        value: -0.055928245
        inSlope: 7.6381435
        outSlope: 7.6381435
        tangentMode: 34
      - serializedVersion: 2
        time: 0.16666667
        value: 1.2170957
        inSlope: -1.9095364
        outSlope: -1.9095364
        tangentMode: 34
      - serializedVersion: 2
        time: 0.23333333
        value: -0.055928245
        inSlope: -19.09536
        outSlope: -19.09536
        tangentMode: 34
      m_PreInfinity: 2
      m_PostInfinity: 2
      m_RotationOrder: 4
    attribute: m_LocalPosition.x
    path: BODY
    classID: 4
    script: {fileID: 0}
  - curve:
      serializedVersion: 2
      m_Curve:
      - serializedVersion: 2
        time: 0
        value: 1.7301676
        inSlope: 0
        outSlope: 0
        tangentMode: 34
      - serializedVersion: 2
        time: 0.083333336
        value: 1.7301676
        inSlope: 4.834588
        outSlope: 4.834588
        tangentMode: 34
      - serializedVersion: 2
        time: 0.16666667
        value: 2.5359323
        inSlope: -1.2086473
        outSlope: -1.2086473
        tangentMode: 34
      - serializedVersion: 2
        time: 0.23333333
        value: 1.7301676
        inSlope: -12.086471
        outSlope: -12.086471
        tangentMode: 34
      m_PreInfinity: 2
      m_PostInfinity: 2
      m_RotationOrder: 4
    attribute: m_LocalPosition.y
    path: BODY
    classID: 4
    script: {fileID: 0}
  - curve:
      serializedVersion: 2
      m_Curve:
      - serializedVersion: 2
        time: 0
        value: 0
        inSlope: 0
        outSlope: 0
        tangentMode: 34
      - serializedVersion: 2
        time: 0.083333336
        value: 0
        inSlope: 0
        outSlope: 0
        tangentMode: 34
      - serializedVersion: 2
        time: 0.16666667
        value: 0
        inSlope: 0
        outSlope: 0
        tangentMode: 34
      - serializedVersion: 2
        time: 0.23333333
        value: 0
        inSlope: 0
        outSlope: 0
        tangentMode: 34
      m_PreInfinity: 2
      m_PostInfinity: 2
      m_RotationOrder: 4
    attribute: m_LocalPosition.z
    path: BODY
    classID: 4
    script: {fileID: 0}
  - curve:
      serializedVersion: 2
      m_Curve:
      - serializedVersion: 2
        time: 0
        value: -0.30187333
        inSlope: 0
        outSlope: 0
        tangentMode: 34
      - serializedVersion: 2
        time: 0.083333336
        value: -0.30187333
        inSlope: 0
        outSlope: 0
        tangentMode: 34
      - serializedVersion: 2
        time: 0.16666667
        value: -0.30187333
        inSlope: 0
        outSlope: 0
        tangentMode: 34
      m_PreInfinity: 2
      m_PostInfinity: 2
      m_RotationOrder: 4
    attribute: m_LocalPosition.z
    path: BODY/WING_R
    classID: 4
    script: {fileID: 0}
  - curve:
      serializedVersion: 2
      m_Curve:
      - serializedVersion: 2
        time: 0
        value: 0.9872462
        inSlope: 0.00000071525574
        outSlope: 0.00000071525574
        tangentMode: 34
      - serializedVersion: 2
        time: 0.083333336
        value: 0.9872463
        inSlope: 0.0000010728836
        outSlope: 0.0000010728836
        tangentMode: 34
      - serializedVersion: 2
        time: 0.16666667
        value: 0.9872464
        inSlope: 0.0000014305115
        outSlope: 0.0000014305115
        tangentMode: 34
      m_PreInfinity: 2
      m_PostInfinity: 2
      m_RotationOrder: 4
    attribute: m_LocalPosition.y
    path: BODY/WING_R
    classID: 4
    script: {fileID: 0}
  - curve:
      serializedVersion: 2
      m_Curve:
      - serializedVersion: 2
        time: 0
        value: 0.1404464
        inSlope: 0.0000010728836
        outSlope: 0.0000010728836
        tangentMode: 34
      - serializedVersion: 2
        time: 0.083333336
        value: 0.14044648
        inSlope: -0.00000017881393
        outSlope: -0.00000017881393
        tangentMode: 34
      - serializedVersion: 2
        time: 0.16666667
        value: 0.14044636
        inSlope: -0.0000014305115
        outSlope: -0.0000014305115
        tangentMode: 34
      m_PreInfinity: 2
      m_PostInfinity: 2
      m_RotationOrder: 4
    attribute: m_LocalPosition.x
    path: BODY/WING_R
    classID: 4
    script: {fileID: 0}
  - curve:
      serializedVersion: 2
      m_Curve:
      - serializedVersion: 2
        time: 0
        value: -0.9354266
        inSlope: -0.13533711
        outSlope: -0.13533711
        tangentMode: 0
      - serializedVersion: 2
        time: 0.016666668
        value: -0.9376822
        inSlope: -0.10266423
        outSlope: -0.10266423
        tangentMode: 0
      - serializedVersion: 2
        time: 0.033333335
        value: -0.93884873
        inSlope: -0.041749477
        outSlope: -0.041749477
        tangentMode: 0
      - serializedVersion: 2
        time: 0.050000004
        value: -0.93907386
        inSlope: -0.050289635
        outSlope: -0.050289635
        tangentMode: 0
      - serializedVersion: 2
        time: 0.06666667
        value: -0.94052505
        inSlope: -0.16712667
        outSlope: -0.16712667
        tangentMode: 0
      - serializedVersion: 2
        time: 0.083333336
        value: -0.94464475
        inSlope: -0.15417697
        outSlope: -0.15417697
        tangentMode: 0
      - serializedVersion: 2
        time: 0.1
        value: -0.9456643
        inSlope: 0.7052458
        outSlope: 0.7052458
        tangentMode: 0
      - serializedVersion: 2
        time: 0.11666667
        value: -0.92113656
        inSlope: 2.4798393
        outSlope: 2.4798393
        tangentMode: 0
      - serializedVersion: 2
        time: 0.13333334
        value: -0.86300296
        inSlope: 3.722117
        outSlope: 3.722117
        tangentMode: 0
      - serializedVersion: 2
        time: 0.15
        value: -0.797066
        inSlope: 2.8526134
        outSlope: 2.8526134
        tangentMode: 0
      - serializedVersion: 2
        time: 0.16666667
        value: -0.76791584
        inSlope: -0.17074054
        outSlope: -0.17074054
        tangentMode: 0
      - serializedVersion: 2
        time: 0.18333334
        value: -0.8027573
        inSlope: -3.0407991
        outSlope: -3.0407991
        tangentMode: 0
      - serializedVersion: 2
        time: 0.2
        value: -0.8692758
        inSlope: -3.550428
        outSlope: -3.550428
        tangentMode: 0
      - serializedVersion: 2
        time: 0.21666667
        value: -0.9211049
        inSlope: -1.9845237
        outSlope: -1.9845237
        tangentMode: 0
      - serializedVersion: 2
        time: 0.23333333
        value: -0.9354266
        inSlope: -0.85930115
        outSlope: -0.85930115
        tangentMode: 0
      m_PreInfinity: 2
      m_PostInfinity: 2
      m_RotationOrder: 4
    attribute: m_LocalRotation.w
    path: BODY/WING_L
    classID: 4
    script: {fileID: 0}
  - curve:
      serializedVersion: 2
      m_Curve:
      - serializedVersion: 2
        time: 0
        value: -0.04099922
        inSlope: 1.3047926
        outSlope: 1.3047926
        tangentMode: 0
      - serializedVersion: 2
        time: 0.016666668
        value: -0.019252673
        inSlope: 1.6274331
        outSlope: 1.6274331
        tangentMode: 0
      - serializedVersion: 2
        time: 0.033333335
        value: 0.013248557
        inSlope: 1.788515
        outSlope: 1.788515
        tangentMode: 0
      - serializedVersion: 2
        time: 0.050000004
        value: 0.0403645
        inSlope: 0.9800947
        outSlope: 0.9800947
        tangentMode: 0
      - serializedVersion: 2
        time: 0.06666667
        value: 0.045918383
        inSlope: -0.7972778
        outSlope: -0.7972778
        tangentMode: 0
      - serializedVersion: 2
        time: 0.083333336
        value: 0.013788573
        inSlope: -3.9991624
        outSlope: -3.9991624
        tangentMode: 0
      - serializedVersion: 2
        time: 0.1
        value: -0.087387025
        inSlope: -7.676553
        outSlope: -7.676553
        tangentMode: 0
      - serializedVersion: 2
        time: 0.11666667
        value: -0.24209651
        inSlope: -9.211029
        outSlope: -9.211029
        tangentMode: 0
      - serializedVersion: 2
        time: 0.13333334
        value: -0.39442137
        inSlope: -7.7467914
        outSlope: -7.7467914
        tangentMode: 0
      - serializedVersion: 2
        time: 0.15
        value: -0.50032294
        inSlope: -4.2392435
        outSlope: -4.2392435
        tangentMode: 0
      - serializedVersion: 2
        time: 0.16666667
        value: -0.53572947
        inSlope: 0.3815943
        outSlope: 0.3815943
        tangentMode: 0
      - serializedVersion: 2
        time: 0.18333334
        value: -0.48760313
        inSlope: 5.044809
        outSlope: 5.044809
        tangentMode: 0
      - serializedVersion: 2
        time: 0.2
        value: -0.36756918
        inSlope: 8.556289
        outSlope: 8.556289
        tangentMode: 0
      - serializedVersion: 2
        time: 0.21666667
        value: -0.20239352
        inSlope: 9.797097
        outSlope: 9.797097
        tangentMode: 0
      - serializedVersion: 2
        time: 0.23333333
        value: -0.040999297
        inSlope: 9.683654
        outSlope: 9.683654
        tangentMode: 0
      m_PreInfinity: 2
      m_PostInfinity: 2
      m_RotationOrder: 4
    attribute: m_LocalRotation.z
    path: BODY/WING_L
    classID: 4
    script: {fileID: 0}
  - curve:
      serializedVersion: 2
      m_Curve:
      - serializedVersion: 2
        time: 0
        value: -0.34633404
        inSlope: 0.19388257
        outSlope: 0.19388257
        tangentMode: 0
      - serializedVersion: 2
        time: 0.016666668
        value: -0.34310266
        inSlope: 0.1520115
        outSlope: 0.1520115
        tangentMode: 0
      - serializedVersion: 2
        time: 0.033333335
        value: -0.341267
        inSlope: 0.11233358
        outSlope: 0.11233358
        tangentMode: 0
      - serializedVersion: 2
        time: 0.050000004
        value: -0.3393582
        inSlope: 0.185633
        outSlope: 0.185633
        tangentMode: 0
      - serializedVersion: 2
        time: 0.06666667
        value: -0.33507922
        inSlope: 0.39447165
        outSlope: 0.39447165
        tangentMode: 0
      - serializedVersion: 2
        time: 0.083333336
        value: -0.32620916
        inSlope: 0.7474691
        outSlope: 0.7474691
        tangentMode: 0
      - serializedVersion: 2
        time: 0.1
        value: -0.3101636
        inSlope: 0.87654597
        outSlope: 0.87654597
        tangentMode: 0
      - serializedVersion: 2
        time: 0.11666667
        value: -0.29699096
        inSlope: 0.322263
        outSlope: 0.322263
        tangentMode: 0
      - serializedVersion: 2
        time: 0.13333334
        value: -0.2994215
        inSlope: -0.5220562
        outSlope: -0.5220562
        tangentMode: 0
      - serializedVersion: 2
        time: 0.15
        value: -0.31439283
        inSlope: -0.7652906
        outSlope: -0.7652906
        tangentMode: 0
      - serializedVersion: 2
        time: 0.16666667
        value: -0.32493117
        inSlope: -0.18422486
        outSlope: -0.18422486
        tangentMode: 0
      - serializedVersion: 2
        time: 0.18333334
        value: -0.32053366
        inSlope: 0.2879745
        outSlope: 0.2879745
        tangentMode: 0
      - serializedVersion: 2
        time: 0.2
        value: -0.31533203
        inSlope: -0.115351096
        outSlope: -0.115351096
        tangentMode: 0
      - serializedVersion: 2
        time: 0.21666667
        value: -0.3243787
        inSlope: -0.9300605
        outSlope: -0.9300605
        tangentMode: 0
      - serializedVersion: 2
        time: 0.23333333
        value: -0.34633404
        inSlope: -1.3173206
        outSlope: -1.3173206
        tangentMode: 0
      m_PreInfinity: 2
      m_PostInfinity: 2
      m_RotationOrder: 4
    attribute: m_LocalRotation.y
    path: BODY/WING_L
    classID: 4
    script: {fileID: 0}
  - curve:
      serializedVersion: 2
      m_Curve:
      - serializedVersion: 2
        time: 0
        value: 0.05786958
        inSlope: -0.37653652
        outSlope: -0.37653652
        tangentMode: 0
      - serializedVersion: 2
        time: 0.016666668
        value: 0.05159397
        inSlope: -0.4200319
        outSlope: -0.4200319
        tangentMode: 0
      - serializedVersion: 2
        time: 0.033333335
        value: 0.043868516
        inSlope: -0.4467908
        outSlope: -0.4467908
        tangentMode: 0
      - serializedVersion: 2
        time: 0.050000004
        value: 0.03670094
        inSlope: -0.3550718
        outSlope: -0.3550718
        tangentMode: 0
      - serializedVersion: 2
        time: 0.06666667
        value: 0.032032788
        inSlope: -0.1318888
        outSlope: -0.1318888
        tangentMode: 0
      - serializedVersion: 2
        time: 0.083333336
        value: 0.03230465
        inSlope: 0.34016806
        outSlope: 0.34016806
        tangentMode: 0
      - serializedVersion: 2
        time: 0.1
        value: 0.043371722
        inSlope: 1.0860415
        outSlope: 1.0860415
        tangentMode: 0
      - serializedVersion: 2
        time: 0.11666667
        value: 0.068506025
        inSlope: 1.6995159
        outSlope: 1.6995159
        tangentMode: 0
      - serializedVersion: 2
        time: 0.13333334
        value: 0.100022264
        inSlope: 1.682179
        outSlope: 1.682179
        tangentMode: 0
      - serializedVersion: 2
        time: 0.15
        value: 0.12457867
        inSlope: 0.9926997
        outSlope: 0.9926997
        tangentMode: 0
      - serializedVersion: 2
        time: 0.16666667
        value: 0.13311225
        inSlope: -0.053085834
        outSlope: -0.053085834
        tangentMode: 0
      - serializedVersion: 2
        time: 0.18333334
        value: 0.12280914
        inSlope: -1.0207487
        outSlope: -1.0207487
        tangentMode: 0
      - serializedVersion: 2
        time: 0.2
        value: 0.0990873
        inSlope: -1.4836197
        outSlope: -1.4836197
        tangentMode: 0
      - serializedVersion: 2
        time: 0.21666667
        value: 0.07335515
        inSlope: -1.2365248
        outSlope: -1.2365248
        tangentMode: 0
      - serializedVersion: 2
        time: 0.23333333
        value: 0.057869807
        inSlope: -0.92912084
        outSlope: -0.92912084
        tangentMode: 0
      m_PreInfinity: 2
      m_PostInfinity: 2
      m_RotationOrder: 4
    attribute: m_LocalRotation.x
    path: BODY/WING_L
    classID: 4
    script: {fileID: 0}
  - curve:
      serializedVersion: 2
      m_Curve:
      - serializedVersion: 2
        time: 0
        value: 0.46948788
        inSlope: 0
        outSlope: 0
        tangentMode: 34
      - serializedVersion: 2
        time: 0.16666667
        value: 0.46948788
        inSlope: 0
        outSlope: 0
        tangentMode: 34
      m_PreInfinity: 2
      m_PostInfinity: 2
      m_RotationOrder: 4
    attribute: m_LocalPosition.z
    path: BODY/WING_L
    classID: 4
    script: {fileID: 0}
  - curve:
      serializedVersion: 2
      m_Curve:
      - serializedVersion: 2
        time: 0
        value: 1.0702543
        inSlope: 0.00000071525574
        outSlope: 0.00000071525574
        tangentMode: 34
      - serializedVersion: 2
        time: 0.16666667
        value: 1.0702544
        inSlope: 0.00000071525574
        outSlope: 0.00000071525574
        tangentMode: 34
      m_PreInfinity: 2
      m_PostInfinity: 2
      m_RotationOrder: 4
    attribute: m_LocalPosition.y
    path: BODY/WING_L
    classID: 4
    script: {fileID: 0}
  - curve:
      serializedVersion: 2
      m_Curve:
      - serializedVersion: 2
        time: 0
        value: -0.854492
        inSlope: 0
        outSlope: 0
        tangentMode: 34
      - serializedVersion: 2
        time: 0.16666667
        value: -0.854492
        inSlope: 0
        outSlope: 0
        tangentMode: 34
      m_PreInfinity: 2
      m_PostInfinity: 2
      m_RotationOrder: 4
    attribute: m_LocalPosition.x
    path: BODY/WING_L
    classID: 4
    script: {fileID: 0}
  - curve:
      serializedVersion: 2
      m_Curve:
      - serializedVersion: 2
        time: 0
        value: -0.9945046
        inSlope: -0.09825825
        outSlope: -0.09825825
        tangentMode: 0
      - serializedVersion: 2
        time: 0.016666668
        value: -0.9961422
        inSlope: -0.10862588
        outSlope: -0.10862588
        tangentMode: 0
      - serializedVersion: 2
        time: 0.033333335
        value: -0.99812543
        inSlope: -0.09243249
        outSlope: -0.09243249
        tangentMode: 0
      - serializedVersion: 2
        time: 0.050000004
        value: -0.9992233
        inSlope: -0.035914775
        outSlope: -0.035914775
        tangentMode: 0
      - serializedVersion: 2
        time: 0.06666667
        value: -0.9993226
        inSlope: 0.04569233
        outSlope: 0.04569233
        tangentMode: 0
      - serializedVersion: 2
        time: 0.083333336
        value: -0.9977002
        inSlope: 0.37072065
        outSlope: 0.37072065
        tangentMode: 0
      - serializedVersion: 2
        time: 0.1
        value: -0.98696524
        inSlope: 1.3483341
        outSlope: 1.3483341
        tangentMode: 0
      - serializedVersion: 2
        time: 0.11666667
        value: -0.95275575
        inSlope: 2.7947717
        outSlope: 2.7947717
        tangentMode: 0
      - serializedVersion: 2
        time: 0.13333334
        value: -0.89380616
        inSlope: 3.607349
        outSlope: 3.607349
        tangentMode: 0
      - serializedVersion: 2
        time: 0.15
        value: -0.83251077
        inSlope: 2.5963337
        outSlope: 2.5963337
        tangentMode: 0
      - serializedVersion: 2
        time: 0.16666667
        value: -0.8072617
        inSlope: -0.30751354
        outSlope: -0.30751354
        tangentMode: 0
      - serializedVersion: 2
        time: 0.18333334
        value: -0.8427612
        inSlope: -3.0615416
        outSlope: -3.0615416
        tangentMode: 0
      - serializedVersion: 2
        time: 0.2
        value: -0.9093131
        inSlope: -3.7135491
        outSlope: -3.7135491
        tangentMode: 0
      - serializedVersion: 2
        time: 0.21666667
        value: -0.9665462
        inSlope: -2.555745
        outSlope: -2.555745
        tangentMode: 0
      - serializedVersion: 2
        time: 0.23333333
        value: -0.9945046
        inSlope: -1.6775037
        outSlope: -1.6775037
        tangentMode: 0
      m_PreInfinity: 2
      m_PostInfinity: 2
      m_RotationOrder: 4
    attribute: m_LocalRotation.w
    path: BODY/WING_R
    classID: 4
    script: {fileID: 0}
  - curve:
      serializedVersion: 2
      m_Curve:
      - serializedVersion: 2
        time: 0
        value: 0.104693055
        inSlope: -1.016377
        outSlope: -1.016377
        tangentMode: 0
      - serializedVersion: 2
        time: 0.016666668
        value: 0.08775344
        inSlope: -1.3047578
        outSlope: -1.3047578
        tangentMode: 0
      - serializedVersion: 2
        time: 0.033333335
        value: 0.06120112
        inSlope: -1.4504151
        outSlope: -1.4504151
        tangentMode: 0
      - serializedVersion: 2
        time: 0.050000004
        value: 0.03940626
        inSlope: -0.73197365
        outSlope: -0.73197365
        tangentMode: 0
      - serializedVersion: 2
        time: 0.06666667
        value: 0.036801998
        inSlope: 0.85123783
        outSlope: 0.85123783
        tangentMode: 0
      - serializedVersion: 2
        time: 0.083333336
        value: 0.06778085
        inSlope: 3.7239482
        outSlope: 3.7239482
        tangentMode: 0
      - serializedVersion: 2
        time: 0.1
        value: 0.1609336
        inSlope: 7.078698
        outSlope: 7.078698
        tangentMode: 0
      - serializedVersion: 2
        time: 0.11666667
        value: 0.30373743
        inSlope: 8.625597
        outSlope: 8.625597
        tangentMode: 0
      - serializedVersion: 2
        time: 0.13333334
        value: 0.44845355
        inSlope: 7.5081406
        outSlope: 7.5081406
        tangentMode: 0
      - serializedVersion: 2
        time: 0.15
        value: 0.55400884
        inSlope: 4.252203
        outSlope: 4.252203
        tangentMode: 0
      - serializedVersion: 2
        time: 0.16666667
        value: 0.5901936
        inSlope: -0.47163785
        outSlope: -0.47163785
        tangentMode: 0
      - serializedVersion: 2
        time: 0.18333334
        value: 0.5382876
        inSlope: -5.222432
        outSlope: -5.222432
        tangentMode: 0
      - serializedVersion: 2
        time: 0.2
        value: 0.41611257
        inSlope: -8.453849
        outSlope: -8.453849
        tangentMode: 0
      - serializedVersion: 2
        time: 0.21666667
        value: 0.25649264
        inSlope: -9.342579
        outSlope: -9.342579
        tangentMode: 0
      - serializedVersion: 2
        time: 0.23333333
        value: 0.104693286
        inSlope: -9.107962
        outSlope: -9.107962
        tangentMode: 0
      m_PreInfinity: 2
      m_PostInfinity: 2
      m_RotationOrder: 4
    attribute: m_LocalRotation.z
    path: BODY/WING_R
    classID: 4
    script: {fileID: 0}
  - curve:
      serializedVersion: 2
      m_Curve:
      - serializedVersion: 2
        time: 0
        value: 0
        inSlope: 0
        outSlope: 0
        tangentMode: 0
      - serializedVersion: 2
        time: 0.016666668
        value: 0
        inSlope: 0
        outSlope: 0
        tangentMode: 0
      - serializedVersion: 2
        time: 0.033333335
        value: 0
        inSlope: 0
        outSlope: 0
        tangentMode: 0
      - serializedVersion: 2
        time: 0.050000004
        value: 0
        inSlope: 0
        outSlope: 0
        tangentMode: 0
      - serializedVersion: 2
        time: 0.06666667
        value: 0
        inSlope: 0
        outSlope: 0
        tangentMode: 0
      - serializedVersion: 2
        time: 0.083333336
        value: 0
        inSlope: 0
        outSlope: 0
        tangentMode: 0
      - serializedVersion: 2
        time: 0.1
        value: 0
        inSlope: 0
        outSlope: 0
        tangentMode: 0
      - serializedVersion: 2
        time: 0.11666667
        value: 0
        inSlope: 0
        outSlope: 0
        tangentMode: 0
      - serializedVersion: 2
        time: 0.13333334
        value: 0
        inSlope: 0
        outSlope: 0
        tangentMode: 0
      - serializedVersion: 2
        time: 0.15
        value: 0
        inSlope: 0
        outSlope: 0
        tangentMode: 0
      - serializedVersion: 2
        time: 0.16666667
        value: 0
        inSlope: 0
        outSlope: 0
        tangentMode: 0
      - serializedVersion: 2
        time: 0.18333334
        value: 0
        inSlope: 0
        outSlope: 0
        tangentMode: 0
      - serializedVersion: 2
        time: 0.2
        value: 0
        inSlope: 0
        outSlope: 0
        tangentMode: 0
      - serializedVersion: 2
        time: 0.21666667
        value: 0
        inSlope: 0
        outSlope: 0
        tangentMode: 0
      - serializedVersion: 2
        time: 0.23333333
        value: 0
        inSlope: 0
        outSlope: 0
        tangentMode: 0
      m_PreInfinity: 2
      m_PostInfinity: 2
      m_RotationOrder: 4
    attribute: m_LocalRotation.y
    path: BODY/WING_R
    classID: 4
    script: {fileID: 0}
  - curve:
      serializedVersion: 2
      m_Curve:
      - serializedVersion: 2
        time: 0
        value: 0
        inSlope: 0
        outSlope: 0
        tangentMode: 0
      - serializedVersion: 2
        time: 0.016666668
        value: 0
        inSlope: 0
        outSlope: 0
        tangentMode: 0
      - serializedVersion: 2
        time: 0.033333335
        value: 0
        inSlope: 0
        outSlope: 0
        tangentMode: 0
      - serializedVersion: 2
        time: 0.050000004
        value: 0
        inSlope: 0
        outSlope: 0
        tangentMode: 0
      - serializedVersion: 2
        time: 0.06666667
        value: 0
        inSlope: 0
        outSlope: 0
        tangentMode: 0
      - serializedVersion: 2
        time: 0.083333336
        value: 0
        inSlope: 0
        outSlope: 0
        tangentMode: 0
      - serializedVersion: 2
        time: 0.1
        value: 0
        inSlope: 0
        outSlope: 0
        tangentMode: 0
      - serializedVersion: 2
        time: 0.11666667
        value: 0
        inSlope: 0
        outSlope: 0
        tangentMode: 0
      - serializedVersion: 2
        time: 0.13333334
        value: 0
        inSlope: 0
        outSlope: 0
        tangentMode: 0
      - serializedVersion: 2
        time: 0.15
        value: 0
        inSlope: 0
        outSlope: 0
        tangentMode: 0
      - serializedVersion: 2
        time: 0.16666667
        value: 0
        inSlope: 0
        outSlope: 0
        tangentMode: 0
      - serializedVersion: 2
        time: 0.18333334
        value: 0
        inSlope: 0
        outSlope: 0
        tangentMode: 0
      - serializedVersion: 2
        time: 0.2
        value: 0
        inSlope: 0
        outSlope: 0
        tangentMode: 0
      - serializedVersion: 2
        time: 0.21666667
        value: 0
        inSlope: 0
        outSlope: 0
        tangentMode: 0
      - serializedVersion: 2
        time: 0.23333333
        value: 0
        inSlope: 0
        outSlope: 0
        tangentMode: 0
      m_PreInfinity: 2
      m_PostInfinity: 2
      m_RotationOrder: 4
    attribute: m_LocalRotation.x
    path: BODY/WING_R
    classID: 4
    script: {fileID: 0}
  - curve:
      serializedVersion: 2
      m_Curve:
      - serializedVersion: 2
        time: 0
        value: 0
        inSlope: 0
        outSlope: 0
        tangentMode: 0
      - serializedVersion: 2
        time: 0.016666668
        value: 0
        inSlope: 0
        outSlope: 0
        tangentMode: 0
      - serializedVersion: 2
        time: 0.033333335
        value: 0
        inSlope: 0
        outSlope: 0
        tangentMode: 0
      - serializedVersion: 2
        time: 0.050000004
        value: 0
        inSlope: 0
        outSlope: 0
        tangentMode: 0
      - serializedVersion: 2
        time: 0.06666667
        value: 0
        inSlope: 0
        outSlope: 0
        tangentMode: 0
      - serializedVersion: 2
        time: 0.083333336
        value: 0
        inSlope: 0
        outSlope: 0
        tangentMode: 0
      - serializedVersion: 2
        time: 0.1
        value: 0
        inSlope: 0
        outSlope: 0
        tangentMode: 0
      - serializedVersion: 2
        time: 0.11666667
        value: 0
        inSlope: 0
        outSlope: 0
        tangentMode: 0
      - serializedVersion: 2
        time: 0.13333334
        value: 0
        inSlope: 0
        outSlope: 0
        tangentMode: 0
      - serializedVersion: 2
        time: 0.15
        value: 0
        inSlope: 0
        outSlope: 0
        tangentMode: 0
      - serializedVersion: 2
        time: 0.16666667
        value: 0
        inSlope: 0
        outSlope: 0
        tangentMode: 0
      - serializedVersion: 2
        time: 0.18333334
        value: 0
        inSlope: 0
        outSlope: 0
        tangentMode: 0
      - serializedVersion: 2
        time: 0.2
        value: 0
        inSlope: 0
        outSlope: 0
        tangentMode: 0
      - serializedVersion: 2
        time: 0.21666667
        value: 0
        inSlope: 0
        outSlope: 0
        tangentMode: 0
      - serializedVersion: 2
        time: 0.23333333
        value: 0
        inSlope: 0
        outSlope: 0
        tangentMode: 0
      m_PreInfinity: 2
      m_PostInfinity: 2
      m_RotationOrder: 4
    attribute: m_LocalRotation.x
    path: BODY
    classID: 4
    script: {fileID: 0}
  - curve:
      serializedVersion: 2
      m_Curve:
      - serializedVersion: 2
        time: 0
        value: 0
        inSlope: 0
        outSlope: 0
        tangentMode: 0
      - serializedVersion: 2
        time: 0.016666668
        value: 0
        inSlope: 0
        outSlope: 0
        tangentMode: 0
      - serializedVersion: 2
        time: 0.033333335
        value: 0
        inSlope: 0
        outSlope: 0
        tangentMode: 0
      - serializedVersion: 2
        time: 0.050000004
        value: 0
        inSlope: 0
        outSlope: 0
        tangentMode: 0
      - serializedVersion: 2
        time: 0.06666667
        value: 0
        inSlope: 0
        outSlope: 0
        tangentMode: 0
      - serializedVersion: 2
        time: 0.083333336
        value: 0
        inSlope: 0
        outSlope: 0
        tangentMode: 0
      - serializedVersion: 2
        time: 0.1
        value: 0
        inSlope: 0
        outSlope: 0
        tangentMode: 0
      - serializedVersion: 2
        time: 0.11666667
        value: 0
        inSlope: 0
        outSlope: 0
        tangentMode: 0
      - serializedVersion: 2
        time: 0.13333334
        value: 0
        inSlope: 0
        outSlope: 0
        tangentMode: 0
      - serializedVersion: 2
        time: 0.15
        value: 0
        inSlope: 0
        outSlope: 0
        tangentMode: 0
      - serializedVersion: 2
        time: 0.16666667
        value: 0
        inSlope: 0
        outSlope: 0
        tangentMode: 0
      - serializedVersion: 2
        time: 0.18333334
        value: 0
        inSlope: 0
        outSlope: 0
        tangentMode: 0
      - serializedVersion: 2
        time: 0.2
        value: 0
        inSlope: 0
        outSlope: 0
        tangentMode: 0
      - serializedVersion: 2
        time: 0.21666667
        value: 0
        inSlope: 0
        outSlope: 0
        tangentMode: 0
      - serializedVersion: 2
        time: 0.23333333
        value: 0
        inSlope: 0
        outSlope: 0
        tangentMode: 0
      m_PreInfinity: 2
      m_PostInfinity: 2
      m_RotationOrder: 4
    attribute: m_LocalRotation.y
    path: BODY
    classID: 4
    script: {fileID: 0}
  - curve:
      serializedVersion: 2
      m_Curve:
      - serializedVersion: 2
        time: 0
        value: -0.0030104327
        inSlope: 0.21686943
        outSlope: 0.21686943
        tangentMode: 0
      - serializedVersion: 2
        time: 0.016666668
        value: 0.00060405786
        inSlope: 0.28915802
        outSlope: 0.28915802
        tangentMode: 0
      - serializedVersion: 2
        time: 0.033333335
        value: 0.0066281683
        inSlope: 0.21686731
        outSlope: 0.21686731
        tangentMode: 0
      - serializedVersion: 2
        time: 0.050000004
        value: 0.007832969
        inSlope: -0.28915805
        outSlope: -0.28915805
        tangentMode: 0
      - serializedVersion: 2
        time: 0.06666667
        value: -0.0030104327
        inSlope: -1.280923
        outSlope: -1.280923
        tangentMode: 0
      - serializedVersion: 2
        time: 0.083333336
        value: -0.034864463
        inSlope: -2.438786
        outSlope: -2.438786
        tangentMode: 0
      - serializedVersion: 2
        time: 0.1
        value: -0.0843033
        inSlope: -3.1510897
        outSlope: -3.1510897
        tangentMode: 0
      - serializedVersion: 2
        time: 0.11666667
        value: -0.13990077
        inSlope: -3.1808405
        outSlope: -3.1808405
        tangentMode: 0
      - serializedVersion: 2
        time: 0.13333334
        value: -0.19033132
        inSlope: -2.5421782
        outSlope: -2.5421782
        tangentMode: 0
      - serializedVersion: 2
        time: 0.15
        value: -0.22464006
        inSlope: -1.2560384
        outSlope: -1.2560384
        tangentMode: 0
      - serializedVersion: 2
        time: 0.16666667
        value: -0.23219927
        inSlope: 0.67287195
        outSlope: 0.67287195
        tangentMode: 0
      - serializedVersion: 2
        time: 0.18333334
        value: -0.202211
        inSlope: 2.6973798
        outSlope: 2.6973798
        tangentMode: 0
      - serializedVersion: 2
        time: 0.2
        value: -0.14228661
        inSlope: 3.9716659
        outSlope: 3.9716659
        tangentMode: 0
      - serializedVersion: 2
        time: 0.21666667
        value: -0.06982213
        inSlope: 4.1782694
        outSlope: 4.1782694
        tangentMode: 0
      - serializedVersion: 2
        time: 0.23333333
        value: -0.0030109652
        inSlope: 4.0086703
        outSlope: 4.0086703
        tangentMode: 0
      m_PreInfinity: 2
      m_PostInfinity: 2
      m_RotationOrder: 4
    attribute: m_LocalRotation.z
    path: BODY
    classID: 4
    script: {fileID: 0}
  - curve:
      serializedVersion: 2
      m_Curve:
      - serializedVersion: 2
        time: 0
        value: 0.99999547
        inSlope: 0.00026106834
        outSlope: 0.00026106834
        tangentMode: 0
      - serializedVersion: 2
        time: 0.016666668
        value: 0.9999998
        inSlope: -0.00052392477
        outSlope: -0.00052392477
        tangentMode: 0
      - serializedVersion: 2
        time: 0.033333335
        value: 0.999978
        inSlope: -0.0009155272
        outSlope: -0.0009155272
        tangentMode: 0
      - serializedVersion: 2
        time: 0.050000004
        value: 0.9999693
        inSlope: 0.00052392494
        outSlope: 0.00052392494
        tangentMode: 0
      - serializedVersion: 2
        time: 0.06666667
        value: 0.99999547
        inSlope: -0.017318131
        outSlope: -0.017318131
        tangentMode: 0
      - serializedVersion: 2
        time: 0.083333336
        value: 0.99939203
        inSlope: -0.10666073
        outSlope: -0.10666073
        tangentMode: 0
      - serializedVersion: 2
        time: 0.1
        value: 0.9964401
        inSlope: -0.27679506
        outSlope: -0.27679506
        tangentMode: 0
      - serializedVersion: 2
        time: 0.11666667
        value: 0.99016553
        inSlope: -0.441606
        outSlope: -0.441606
        tangentMode: 0
      - serializedVersion: 2
        time: 0.13333334
        value: 0.9817199
        inSlope: -0.4717111
        outSlope: -0.4717111
        tangentMode: 0
      - serializedVersion: 2
        time: 0.15
        value: 0.9744418
        inSlope: -0.27155045
        outSlope: -0.27155045
        tangentMode: 0
      - serializedVersion: 2
        time: 0.16666667
        value: 0.97266823
        inSlope: 0.14700474
        outSlope: 0.14700474
        tangentMode: 0
      - serializedVersion: 2
        time: 0.18333334
        value: 0.979342
        inSlope: 0.51471776
        outSlope: 0.51471776
        tangentMode: 0
      - serializedVersion: 2
        time: 0.2
        value: 0.9898255
        inSlope: 0.5465234
        outSlope: 0.5465234
        tangentMode: 0
      - serializedVersion: 2
        time: 0.21666667
        value: 0.9975594
        inSlope: 0.30509952
        outSlope: 0.30509952
        tangentMode: 0
      - serializedVersion: 2
        time: 0.23333333
        value: 0.99999547
        inSlope: 0.14616252
        outSlope: 0.14616252
        tangentMode: 0
      m_PreInfinity: 2
      m_PostInfinity: 2
      m_RotationOrder: 4
    attribute: m_LocalRotation.w
    path: BODY
    classID: 4
    script: {fileID: 0}
  m_EulerEditorCurves:
  - curve:
      serializedVersion: 2
      m_Curve:
      - serializedVersion: 2
        time: 0
        value: 0
        inSlope: 0
        outSlope: 0
        tangentMode: 34
      - serializedVersion: 2
        time: 0.083333336
        value: 0
        inSlope: 0
        outSlope: 0
        tangentMode: 34
      - serializedVersion: 2
        time: 0.16666667
        value: 0
        inSlope: 0
        outSlope: 0
        tangentMode: 34
      m_PreInfinity: 2
      m_PostInfinity: 2
      m_RotationOrder: 4
    attribute: localEulerAnglesBaked.x
    path: BODY/WING_R
    classID: 4
    script: {fileID: 0}
  - curve:
      serializedVersion: 2
      m_Curve:
      - serializedVersion: 2
        time: 0
        value: 0
        inSlope: 0
        outSlope: 0
        tangentMode: 34
      - serializedVersion: 2
        time: 0.083333336
        value: 0
        inSlope: 0
        outSlope: 0
        tangentMode: 34
      - serializedVersion: 2
        time: 0.16666667
        value: 0
        inSlope: 0
        outSlope: 0
        tangentMode: 34
      m_PreInfinity: 2
      m_PostInfinity: 2
      m_RotationOrder: 4
    attribute: localEulerAnglesBaked.y
    path: BODY/WING_R
    classID: 4
    script: {fileID: 0}
  - curve:
      serializedVersion: 2
      m_Curve:
      - serializedVersion: 2
        time: 0
        value: 347.98105
        inSlope: 50.95056
        outSlope: 50.95056
        tangentMode: 34
      - serializedVersion: 2
        time: 0.083333336
        value: 352.22693
        inSlope: -361.93524
        outSlope: -361.93524
        tangentMode: 34
      - serializedVersion: 2
        time: 0.16666667
        value: 287.6585
        inSlope: 65.00833
        outSlope: 65.00833
        tangentMode: 34
      - serializedVersion: 2
        time: 0.23333333
        value: 347.98102
        inSlope: 904.8377
        outSlope: 904.8377
        tangentMode: 34
      m_PreInfinity: 2
      m_PostInfinity: 2
      m_RotationOrder: 4
    attribute: localEulerAnglesBaked.z
    path: BODY/WING_R
    classID: 4
    script: {fileID: 0}
  - curve:
      serializedVersion: 2
      m_Curve:
      - serializedVersion: 2
        time: 0
        value: 352.14514
        inSlope: 58.46411
        outSlope: 58.46411
        tangentMode: 34
      - serializedVersion: 2
        time: 0.083333336
        value: 357.01715
        inSlope: -154.13947
        outSlope: -154.13947
        tangentMode: 34
      - serializedVersion: 2
        time: 0.16666667
        value: 326.45523
        inSlope: 9.302597
        outSlope: 9.302597
        tangentMode: 34
      - serializedVersion: 2
        time: 0.23333333
        value: 352.1451
        inSlope: 385.34824
        outSlope: 385.34824
        tangentMode: 34
      m_PreInfinity: 2
      m_PostInfinity: 2
      m_RotationOrder: 4
    attribute: localEulerAnglesBaked.x
    path: BODY/WING_L
    classID: 4
    script: {fileID: 0}
  - curve:
      serializedVersion: 2
      m_Curve:
      - serializedVersion: 2
        time: 0
        value: 40.487858
        inSlope: -27.783691
        outSlope: -27.783691
        tangentMode: 34
      - serializedVersion: 2
        time: 0.083333336
        value: 38.17255
        inSlope: -91.02127
        outSlope: -91.02127
        tangentMode: 34
      - serializedVersion: 2
        time: 0.16666667
        value: 25.317646
        inSlope: 36.64717
        outSlope: 36.64717
        tangentMode: 34
      - serializedVersion: 2
        time: 0.23333333
        value: 40.487858
        inSlope: 227.55319
        outSlope: 227.55319
        tangentMode: 34
      m_PreInfinity: 2
      m_PostInfinity: 2
      m_RotationOrder: 4
    attribute: localEulerAnglesBaked.y
    path: BODY/WING_L
    classID: 4
    script: {fileID: 0}
  - curve:
      serializedVersion: 2
      m_Curve:
      - serializedVersion: 2
        time: 0
        value: 2.1184754
        inSlope: -57.87969
        outSlope: -57.87969
        tangentMode: 34
      - serializedVersion: 2
        time: 0.083333336
        value: -2.704832
        inSlope: 359.6315
        outSlope: 359.6315
        tangentMode: 34
      - serializedVersion: 2
        time: 0.16666667
        value: 62.05706
        inSlope: -60.96805
        outSlope: -60.96805
        tangentMode: 34
      - serializedVersion: 2
        time: 0.23333333
        value: 2.118475
        inSlope: -899.0788
        outSlope: -899.0788
        tangentMode: 34
      m_PreInfinity: 2
      m_PostInfinity: 2
      m_RotationOrder: 4
    attribute: localEulerAnglesBaked.z
    path: BODY/WING_L
    classID: 4
    script: {fileID: 0}
  - curve:
      serializedVersion: 2
      m_Curve:
      - serializedVersion: 2
        time: 0
        value: 0
        inSlope: 0
        outSlope: 0
        tangentMode: 34
      - serializedVersion: 2
        time: 0.06666667
        value: 0
        inSlope: 0
        outSlope: 0
        tangentMode: 34
      - serializedVersion: 2
        time: 0.16666667
        value: 0
        inSlope: 0
        outSlope: 0
        tangentMode: 34
      - serializedVersion: 2
        time: 0.23333333
        value: 0
        inSlope: 0
        outSlope: 0
        tangentMode: 34
      m_PreInfinity: 2
      m_PostInfinity: 2
      m_RotationOrder: 4
    attribute: localEulerAnglesBaked.x
    path: BODY
    classID: 4
    script: {fileID: 0}
  - curve:
      serializedVersion: 2
      m_Curve:
      - serializedVersion: 2
        time: 0
        value: 0
        inSlope: 0
        outSlope: 0
        tangentMode: 34
      - serializedVersion: 2
        time: 0.06666667
        value: 0
        inSlope: 0
        outSlope: 0
        tangentMode: 34
      - serializedVersion: 2
        time: 0.16666667
        value: 0
        inSlope: 0
        outSlope: 0
        tangentMode: 34
      - serializedVersion: 2
        time: 0.23333333
        value: 0
        inSlope: 0
        outSlope: 0
        tangentMode: 34
      m_PreInfinity: 2
      m_PostInfinity: 2
      m_RotationOrder: 4
    attribute: localEulerAnglesBaked.y
    path: BODY
    classID: 4
    script: {fileID: 0}
  - curve:
      serializedVersion: 2
      m_Curve:
      - serializedVersion: 2
        time: 0
        value: -0.3449707
        inSlope: 0
        outSlope: 0
        tangentMode: 34
      - serializedVersion: 2
        time: 0.06666667
        value: -0.3449707
        inSlope: -132.541
        outSlope: -132.541
        tangentMode: 34
      - serializedVersion: 2
        time: 0.16666667
        value: -26.853172
        inSlope: 66.270065
        outSlope: 66.270065
        tangentMode: 34
      - serializedVersion: 2
        time: 0.23333333
        value: -0.34503174
        inSlope: 397.62213
        outSlope: 397.62213
        tangentMode: 34
      m_PreInfinity: 2
      m_PostInfinity: 2
      m_RotationOrder: 4
    attribute: localEulerAnglesBaked.z
    path: BODY
    classID: 4
    script: {fileID: 0}
  m_HasGenericRootTransform: 0
  m_HasMotionFloatCurves: 0
  m_GenerateMotionCurves: 0
  m_Events: []
