%YAML 1.1
%TAG !u! tag:unity3d.com,2011:
--- !u!74 &7400000
AnimationClip:
  m_ObjectHideFlags: 0
  m_PrefabParentObject: {fileID: 0}
  m_PrefabInternal: {fileID: 0}
  m_Name: EYE_ANI
  serializedVersion: 6
  m_Legacy: 0
  m_Compressed: 0
  m_UseHighQualityCurve: 1
  m_RotationCurves: []
  m_CompressedRotationCurves: []
  m_EulerCurves: []
  m_PositionCurves:
  - curve:
      serializedVersion: 2
      m_Curve:
      - serializedVersion: 2
        time: 0
        value: {x: -0.2036547, y: 1.399247, z: 0.20227337}
        inSlope: {x: -0.71423733, y: -0.16720709, z: 0}
        outSlope: {x: -0.71423733, y: -0.16720709, z: 0}
        tangentMode: 1
      - serializedVersion: 2
        time: 0.65
        value: {x: -0.5113024, y: 1.7533627, z: 0.20227337}
        inSlope: {x: 0.018850401, y: 0.74154246, z: 0}
        outSlope: {x: 0.018850401, y: 0.74154246, z: 0}
        tangentMode: 0
      - serializedVersion: 2
        time: 0.96666664
        value: {x: -0.384287, y: 1.9003222, z: 0.20227337}
        inSlope: {x: 0.66984874, y: 0.06433188, z: 0}
        outSlope: {x: 0.66984874, y: 0.06433188, z: 0}
        tangentMode: 0
      - serializedVersion: 2
        time: 0.98333335
        value: {x: -0.3729919, y: 1.9009309, z: 0.20227337}
        inSlope: {x: 0.6852469, y: 0.008363694, z: 0}
        outSlope: {x: 0.6852469, y: 0.008363694, z: 0}
        tangentMode: 0
      - serializedVersion: 2
        time: 1.4666667
        value: {x: -0.068288036, y: 1.6749223, z: 0.20227337}
        inSlope: {x: 0.31117445, y: -0.72843146, z: 0}
        outSlope: {x: 0.31117445, y: -0.72843146, z: 0}
        tangentMode: 0
      - serializedVersion: 2
        time: 1.55
        value: {x: -0.05139792, y: 1.6140963, z: 0.20227337}
        inSlope: {x: 0.0863283, y: -0.72499967, z: 0}
        outSlope: {x: 0.0863283, y: -0.72499967, z: 0}
        tangentMode: 99
      - serializedVersion: 2
        time: 2
        value: {x: -0.2036547, y: 1.399247, z: 0.20227337}
        inSlope: {x: -0.65962595, y: -0.043396972, z: 0}
        outSlope: {x: -0.65962595, y: -0.043396972, z: 0}
        tangentMode: 113698528
      m_PreInfinity: 2
      m_PostInfinity: 2
      m_RotationOrder: 4
    path: 
  m_ScaleCurves:
  - curve:
      serializedVersion: 2
      m_Curve:
      - serializedVersion: 2
        time: 0
        value: {x: 1, y: 1, z: 1}
        inSlope: {x: 0.034177378, y: 0.047109425, z: 0}
        outSlope: {x: 0.034177378, y: 0.047109425, z: 0}
        tangentMode: 1
      - serializedVersion: 2
        time: 0.6166667
        value: {x: 0.83750004, y: 1, z: 1}
        inSlope: {x: 0.067107856, y: -0.060323194, z: 0}
        outSlope: {x: 0.067107856, y: -0.060323194, z: 0}
        tangentMode: 0
      - serializedVersion: 2
        time: 1
        value: {x: 0.9899629, y: 0.9537522, z: 1}
        inSlope: {x: 0.027459996, y: -0.037199304, z: 0}
        outSlope: {x: 0.027459996, y: -0.037199304, z: 0}
        tangentMode: 0
      - serializedVersion: 2
        time: 1.5333333
        value: {x: 0.8882244, y: 0.9687255, z: 1}
        inSlope: {x: 0.02437973, y: 0.069612965, z: 0}
        outSlope: {x: 0.02437973, y: 0.069612965, z: 0}
        tangentMode: 99
      - serializedVersion: 2
        time: 2
        value: {x: 1, y: 1, z: 1}
        inSlope: {x: 0.11383476, y: 0.04624778, z: 0}
        outSlope: {x: 0.11383476, y: 0.04624778, z: 0}
        tangentMode: 113698528
      m_PreInfinity: 2
      m_PostInfinity: 2
      m_RotationOrder: 4
    path: 
  m_FloatCurves: []
  m_PPtrCurves: []
  m_SampleRate: 60
  m_WrapMode: 0
  m_Bounds:
    m_Center: {x: 0, y: 0, z: 0}
    m_Extent: {x: 0, y: 0, z: 0}
  m_ClipBindingConstant:
    genericBindings:
    - serializedVersion: 2
      path: 0
      attribute: 1
      script: {fileID: 0}
      typeID: 4
      customType: 0
      isPPtrCurve: 0
    - serializedVersion: 2
      path: 0
      attribute: 3
      script: {fileID: 0}
      typeID: 4
      customType: 0
      isPPtrCurve: 0
    pptrCurveMapping: []
  m_AnimationClipSettings:
    serializedVersion: 2
    m_AdditiveReferencePoseClip: {fileID: 0}
    m_AdditiveReferencePoseTime: 0
    m_StartTime: 0
    m_StopTime: 2
    m_OrientationOffsetY: 0
    m_Level: 0
    m_CycleOffset: 0
    m_HasAdditiveReferencePose: 0
    m_LoopTime: 1
    m_LoopBlend: 0
    m_LoopBlendOrientation: 0
    m_LoopBlendPositionY: 0
    m_LoopBlendPositionXZ: 0
    m_KeepOriginalOrientation: 0
    m_KeepOriginalPositionY: 1
    m_KeepOriginalPositionXZ: 0
    m_HeightFromFeet: 0
    m_Mirror: 0
  m_EditorCurves:
  - curve:
      serializedVersion: 2
      m_Curve:
      - serializedVersion: 2
        time: 0
        value: -0.2036547
        inSlope: -0.71423733
        outSlope: -0.71423733
        tangentMode: 0
      - serializedVersion: 2
        time: 0.65
        value: -0.5113024
        inSlope: 0.018850401
        outSlope: 0.018850401
        tangentMode: 34
      - serializedVersion: 2
        time: 1.55
        value: -0.05139792
        inSlope: 0.0863283
        outSlope: 0.0863283
        tangentMode: 34
      - serializedVersion: 2
        time: 2
        value: -0.2036547
        inSlope: -0.65962595
        outSlope: -0.65962595
        tangentMode: 0
      m_PreInfinity: 2
      m_PostInfinity: 2
      m_RotationOrder: 4
    attribute: m_LocalPosition.x
    path: 
    classID: 4
    script: {fileID: 0}
  - curve:
      serializedVersion: 2
      m_Curve:
      - serializedVersion: 2
        time: 0
        value: 1.399247
        inSlope: -0.16720709
        outSlope: -0.16720709
        tangentMode: 0
      - serializedVersion: 2
        time: 0.98333335
        value: 1.9009309
        inSlope: 0.008363694
        outSlope: 0.008363694
        tangentMode: 34
      - serializedVersion: 2
        time: 2
        value: 1.399247
        inSlope: -0.043396972
        outSlope: -0.043396972
        tangentMode: 0
      m_PreInfinity: 2
      m_PostInfinity: 2
      m_RotationOrder: 4
    attribute: m_LocalPosition.y
    path: 
    classID: 4
    script: {fileID: 0}
  - curve:
      serializedVersion: 2
      m_Curve:
      - serializedVersion: 2
        time: 0
        value: 0.20227337
        inSlope: 0
        outSlope: 0
        tangentMode: 34
      - serializedVersion: 2
        time: 0.65
        value: 0.20227337
        inSlope: 0
        outSlope: 0
        tangentMode: 34
      - serializedVersion: 2
        time: 0.96666664
        value: 0.20227337
        inSlope: 0
        outSlope: 0
        tangentMode: 34
      - serializedVersion: 2
        time: 0.98333335
        value: 0.20227337
        inSlope: 0
        outSlope: 0
        tangentMode: 34
      - serializedVersion: 2
        time: 1.4666667
        value: 0.20227337
        inSlope: 0
        outSlope: 0
        tangentMode: 34
      - serializedVersion: 2
        time: 1.55
        value: 0.20227337
        inSlope: 0
        outSlope: 0
        tangentMode: 34
      - serializedVersion: 2
        time: 2
        value: 0.20227337
        inSlope: 0
        outSlope: 0
        tangentMode: 34
      m_PreInfinity: 2
      m_PostInfinity: 2
      m_RotationOrder: 4
    attribute: m_LocalPosition.z
    path: 
    classID: 4
    script: {fileID: 0}
  - curve:
      serializedVersion: 2
      m_Curve:
      - serializedVersion: 2
        time: 0
        value: 1
        inSlope: 0.034177378
        outSlope: 0.034177378
        tangentMode: 0
      - serializedVersion: 2
        time: 0.6166667
        value: 0.83750004
        inSlope: 0.067107856
        outSlope: 0.067107856
        tangentMode: 34
      - serializedVersion: 2
        time: 1
        value: 0.9899629
        inSlope: 0.027459996
        outSlope: 0.027459996
        tangentMode: 0
      - serializedVersion: 2
        time: 1.5333333
        value: 0.8882244
        inSlope: 0.02437973
        outSlope: 0.02437973
        tangentMode: 34
      - serializedVersion: 2
        time: 2
        value: 1
        inSlope: 0.11383476
        outSlope: 0.11383476
        tangentMode: 0
      m_PreInfinity: 2
      m_PostInfinity: 2
      m_RotationOrder: 4
    attribute: m_LocalScale.x
    path: 
    classID: 4
    script: {fileID: 0}
  - curve:
      serializedVersion: 2
      m_Curve:
      - serializedVersion: 2
        time: 0
        value: 1
        inSlope: 0.047109425
        outSlope: 0.047109425
        tangentMode: 0
      - serializedVersion: 2
        time: 0.6166667
        value: 1
        inSlope: -0.060323194
        outSlope: -0.060323194
        tangentMode: 34
      - serializedVersion: 2
        time: 1
        value: 0.9537522
        inSlope: -0.037199304
        outSlope: -0.037199304
        tangentMode: 34
      - serializedVersion: 2
        time: 2
        value: 1
        inSlope: 0.04624778
        outSlope: 0.04624778
        tangentMode: 34
      m_PreInfinity: 2
      m_PostInfinity: 2
      m_RotationOrder: 4
    attribute: m_LocalScale.y
    path: 
    classID: 4
    script: {fileID: 0}
  - curve:
      serializedVersion: 2
      m_Curve:
      - serializedVersion: 2
        time: 0
        value: 1
        inSlope: 0
        outSlope: 0
        tangentMode: 34
      m_PreInfinity: 2
      m_PostInfinity: 2
      m_RotationOrder: 4
    attribute: m_LocalScale.z
    path: 
    classID: 4
    script: {fileID: 0}
  m_EulerEditorCurves: []
  m_HasGenericRootTransform: 1
  m_HasMotionFloatCurves: 0
  m_GenerateMotionCurves: 0
  m_Events: []
